…
Arguing about domestic league strength is something that soccer fans seems to never tire of. ([*"Could Messi do it on a cold rainy night in Stoke?"*](https://www.goal.com/en-us/news/what-does-can-they-do-it-on-a-cold-rainy-night-in-stoke-mean/1f7alegnrwfr01i5vj34vak59k)) Many of these conversations are anecdotal, leading to "hot takes" that are unfalsifiable. While we'll probably never completely move away from these kinds of discussions, we can at least try to inform them with a quantitative approach.

Perhaps the obvious way to do so is to take match results from international tournaments (e.g. Champions League, Europa). But such an approach can be flawed---there's not a large sample, and match results may not be reflective of "true" team strength (e.g. one team may win on xG by a large margin, but lose the game.)

## Methodology

But what if we used an approach rooted in player performance? I asked myself that very question and came up with the following methodology.

1.  Identify players who played in more than one league within the same season or across consecutive seasons.[^1] Calculate the difference in each player's [atomic VAEP](https://arxiv.org/pdf/1802.07127.pdf) per 90 minutes (VAEP/90) after changing leagues.

[^1]: It's closer to xG+xA, although the authors might disagree with that as well. It's really best treated separately, which perhaps explains why the authors often using "rating" and "contribution" when referring to VAEP.

```{r}
# # A tibble: 2,462 x 9
#    Season Player              Position `Age Group` `League A`               `League B`               `VAEP/90 A` `VAEP/90 B` `VAEP/90 Diff`
#     <dbl> <chr>               <chr>    <chr>       <chr>                    <chr>                          <dbl>       <dbl>          <dbl>
#  1   2020 Timo Werner         AM       24<=x<27    Bundesliga 1 (Germany)   Premier League (England)       1.25        0.638         0.610 
#  2   2020 Alexander Sørloth   FW       24<=x<27    Super Lig (Turkey)       Bundesliga 1 (Germany)         1.07        0.773         0.296 
#  3   2020 Hakim Ziyech        M        27<=x<30    Eredivisie (Netherlands) Premier League (England)       0.958       0.365         0.593 
#  4   2020 Nicolás González    M        18<=x<24    Bundesliga 2 (Germany)   Bundesliga 1 (Germany)         0.917       0.943        -0.0256
#  5   2020 Fabian Klos         FW       30<=x<36    Bundesliga 2 (Germany)   Bundesliga 1 (Germany)         0.904       0.547         0.358 
#  6   2020 Victor Osimhen      FW       18<=x<24    Ligue 1 (France)         Serie A (Italy)                0.889       1.01         -0.120 
#  7   2020 Eldor Shomurodov    FW       24<=x<27    Premier League (Russia)  Serie A (Italy)                0.882       0.755         0.126 
#  8   2020 Callum Robinson     AM       24<=x<27    Championship (England)   Premier League (England)       0.880       0.682         0.198 
#  9   2020 Jarrod Bowen        AM       18<=x<24    Championship (England)   Premier League (England)       0.871       0.448         0.423 
# 10   2020 Aleksandar Mitrovic FW       24<=x<27    Championship (England)   Premier League (England)       0.866       0.499         0.367 
# # ... with 2,452 more rows
```
…
```{r}
# # A tibble: 36,857 x 5
#    Season Player             Minutes    xG  VAEP
#     <dbl> <chr>                <dbl> <dbl> <dbl>
#  1   2015 Lionel Messi          3529  38.1  69.0
#  2   2016 Luis Suárez           3294  35.6  55.7
#  3   2018 Robert Lewandowski    2259  35.1  40.2
#  4   2012 Lionel Messi          3425  32.4  76.2
#  5   2013 Lionel Messi          2776  31.6  60.0
#  6   2015 Cristiano Ronaldo     3236  30.8  58.7
#  7   2018 Mohamed Salah         3080  30.4  50.5
#  8   2012 Cristiano Ronaldo     3504  30.1  62.7
#  9   2017 Edin Dzeko            3216  29.8  49.7
# 10   2020 Robert Lewandowski    2902  29.7  49.2
# # ... with 36,847 more rows
```

2.  Convert the player-level VAEP/90 differences to z-scores by position and age group.

```{r}
# # A tibble: 2,462 x 8
#    Season Player              Position `Age Group` `League A`               `League B`               `VAEP/90 Diff` `VAEP/90 Diff Norm`
#     <dbl> <chr>               <chr>    <chr>       <chr>                    <chr>                             <dbl>               <dbl>
#  1   2020 Timo Werner         AM       24<=x<27    Bundesliga 1 (Germany)   Premier League (England)         0.610                2.28 
#  2   2020 Alexander Sørloth   FW       24<=x<27    Super Lig (Turkey)       Bundesliga 1 (Germany)           0.296                1.10 
#  3   2020 Hakim Ziyech        M        27<=x<30    Eredivisie (Netherlands) Premier League (England)         0.593                3.20 
#  4   2020 Nicolás González    M        18<=x<24    Bundesliga 2 (Germany)   Bundesliga 1 (Germany)          -0.0256              -0.148
#  5   2020 Fabian Klos         FW       30<=x<36    Bundesliga 2 (Germany)   Bundesliga 1 (Germany)           0.358                1.20 
#  6   2020 Victor Osimhen      FW       18<=x<24    Ligue 1 (France)         Serie A (Italy)                 -0.120               -0.439
#  7   2020 Eldor Shomurodov    FW       24<=x<27    Premier League (Russia)  Serie A (Italy)                  0.126                0.471
#  8   2020 Callum Robinson     AM       24<=x<27    Championship (England)   Premier League (England)         0.198                0.740
#  9   2020 Jarrod Bowen        AM       18<=x<24    Championship (England)   Premier League (England)         0.423                1.89 
# 10   2020 Aleksandar Mitrovic FW       24<=x<27    Championship (England)   Premier League (England)         0.367                1.37 
# # ... with 2,452 more rows
```
…
For APM, we might say the coefficient estimate represents how much a player contributes relative to an "average" player. We might be tempted to try to interpret these coefficients directly as well. However, we can't do that for a few reasons:

1.  This is not a zero-sum situation. Our data is fundamentally different. There is no notion of a matchup between one league and another like there is in hockey/basketball with players on the ice/court. Instead, our data is more analogous to a player playing against themselves (not a set of players versus another set of players). Also, we have to adjust for minutes taking the difference in rates before one would do so in APM because the minutes played will differ for the same player moving between two leagues (except by pure coincidence they play the same number of minutes)

In practice, all of this means that the target variable across all records does not sum to 0 (even without the z-normalization) like it would in the data for an APM model.

2.  Even if this were a zero-sum type of problem and the model returned some negative coefficient estimates, it's unclear what the intercept (or 0) even means. Does it mean "average"? If so, what is an "average" league?

If we want to convert numbers back to a VAEP/90 scale, we always have to interpret the numbers on a relative basis. Sure, we can infer the league "power rankings" from just this singular coefficient list (Premier League as the strongest and Bundesliga 2 as the weakest), but we'd like to translate the coefficients to something more interpretable.

With this in mind, we can take the difference between coefficient estimates to get closer to a direct interpretation.

```{r}
# # A tibble: 225 x 5
#    `League A`               `League B`               `Estimate A` `Estimate B` `Estimate Difference`
#    <fct>                    <fct>                           <dbl>        <dbl>                 <dbl>
#  1 Premier League (England) Premier League (England)         1.01        1.01                  0    
#  2 Premier League (England) La Liga (Spain)                  1.01        0.889                 0.119
#  3 Premier League (England) Ligue 1 (France)                 1.01        0.798                 0.210
#  4 Premier League (England) Serie A (Italy)                  1.01        0.761                 0.247
#  5 Premier League (England) Serie A (Brazil)                 1.01        0.759                 0.249
#  6 Premier League (England) Primeira Liga (Portugal)         1.01        0.692                 0.317
#  7 Premier League (England) Championship (England)           1.01        0.668                 0.340
#  8 Premier League (England) Bundesliga 1 (Germany)           1.01        0.662                 0.346
#  9 Premier League (England) Super Lig (Turkey)               1.01        0.656                 0.352
# 10 Premier League (England) Premier League (Russia)          1.01        0.509                 0.499
# # ... with 215 more rows
```

4.  Un-transform the coefficients of the regression (one for each league) using a "weighted-average" standard deviation and mean from the z-transformations of groups. [^6] [^7]

[^6]: "Weighted-average": `Raw Difference (Un-transformed) = (VAEP/90 Diff Z-Trans * sum(SD * (N * sum(N)))) - sum(Mean * (N * sum(N)))`

[^7]: This is for interpretation of the "overall" league strengths. For interpretation of a player falling in a specific group (e.g. 18-24 FWs), use just the standard deviation and mean from the the specified group.

```{r}
# # A tibble: 225 x 5
#    `League A`               `League B`               `Estimate A` `Estimate B` `Estimate Difference`
#    <fct>                    <fct>                           <dbl>        <dbl>                 <dbl>
#  1 Premier League (England) Premier League (England)         1.01        1.01                  0    
#  2 Premier League (England) La Liga (Spain)                  1.01        0.889                 0.119
#  3 Premier League (England) Ligue 1 (France)                 1.01        0.798                 0.210
#  4 Premier League (England) Serie A (Italy)                  1.01        0.761                 0.247
#  5 Premier League (England) Serie A (Brazil)                 1.01        0.759                 0.249
#  6 Premier League (England) Primeira Liga (Portugal)         1.01        0.692                 0.317
#  7 Premier League (England) Championship (England)           1.01        0.668                 0.340
#  8 Premier League (England) Bundesliga 1 (Germany)           1.01        0.662                 0.346
#  9 Premier League (England) Super Lig (Turkey)               1.01        0.656                 0.352
# 10 Premier League (England) Premier League (Russia)          1.01        0.509                 0.499
# # ... with 215 more rows
```

## Interpretation

Interpretation can be a little tricky.

a.  The differences between a specified pair of the final un-transformed coefficients represents the expected change (`Raw Difference (Un-transformed)`) in an average player's VAEP/90 when moving between the specified leagues.

b.  To interpret these raw differences as a percentage, use the median VAEP/90 across all leagues (e.g. 0.07/90) as a "baseline" by which the difference in (a) is interpreted as a deviation. For example, if the median VAEP/90 is 0.3 and the `Raw Difference (Un-transformed)` between league A and league B's VAEP/90 is 0.07, then the `% Difference` is (0.3-0.07)/0.3 = 22%.

```{r}
# # A tibble: 256 x 5
#    `League A`               `League B`               `Raw Difference (Transformed)` `Raw Difference (Un-transformed)` `% Difference`
#    <fct>                    <fct>                                             <dbl>                             <dbl> <chr>         
#  1 Premier League (England) Premier League (England)                          0                                0      0%            
#  2 Premier League (England) La Liga (Spain)                                   0.107                            0.0166 5%            
#  3 Premier League (England) Ligue 1 (France)                                  0.189                            0.0295 10%           
#  4 Premier League (England) Serie A (Italy)                                   0.238                            0.0371 12%           
#  5 Premier League (England) Serie A (Brazil)                                  0.252                            0.0393 13%           
#  6 Premier League (England) Primeira Liga (Portugal)                          0.300                            0.0469 15%           
#  7 Premier League (England) Bundesliga 1 (Germany)                            0.326                            0.0509 17%           
#  8 Premier League (England) Championship (England)                            0.334                            0.0521 17%           
#  9 Premier League (England) Super Lig (Turkey)                                0.358                            0.0559 18%           
# 10 Premier League (England) Premier League (Russia)                           0.491                            0.0766 25%           
# # ... with 246 more rows
```
…
