…
2.  The index `idx` is important! This will come back into play when we do the NNMF procedure, at which point we'll "flatten" out our `x`-`y` pairs into a 1-d format.

Ok, on to the actual data joining.

```{r eval=F, echo=T, include=T}
events_dt <- events %>% drop_na() %>% data.table::as.data.table()
grid_xy_yards_dt <- grid_xy_yards %>% data.table::as.data.table()
events_binned <-
  events_dt[grid_xy_yards_dt, on=.(x > x, x <= next_x, y >= y, y < next_y)] %>% 
  as_tibble() %>% 
  select(player_id, idx, x, y)
events_binned
```

    ##  # A tibble: 224,038 x 4
    ##     player_id   idx     x     y
    ##         <int> <int> <dbl> <dbl>
    ##   1      5462     1     0     0
    ##   2      5467     1     0     0
    ##   3      5488     1     0     0
    ##   4      3632     1     0     0
    ##   5      5576     1     0     0
    ##   6      5595     1     0     0
    ##   7      5263     1     0     0
    ##   8      4063     1     0     0
    ##   9      5231     1     0     0
    ##  10      5231     1     0     0
    ##  # ... with 224,028 more rows
…
players <-
  events_binned %>% 
  group_by(player_id, x, y, idx) %>% 
  summarize(n = n()) %>% 
  ungroup() %>% 
  # Rejoin back on the grid to 'add back' cells with empty counts (i.e. `n = 0`).
  full_join(grid_players, by = c('player_id', 'x', 'y', 'idx')) %>% 
  select(-dummy, -next_x, -next_y) %>% 
  replace_na(list(n = 0L)) %>% 
  arrange(player_id, x, y)
players
```

    ##  # A tibble: 361,800 x 5
    ##     player_id     x      y   idx     n
    ##         <int> <dbl>  <dbl> <int> <int>
    ##   1      2941     0  0         1     0
    ##   2      2941     0  4.211     2     0
    ##   3      2941     0  8.421     3     0
    ##   4      2941     0 12.63      4     0
    ##   5      2941     0 16.84      5     0
    ##   6      2941     0 21.05      6     0
    ##   7      2941     0 25.26      7     0
    ##   8      2941     0 29.47      8     0
    ##   9      2941     0 33.68      9     0
    ##  10      2941     0 37.89     10     0
    ##  # ... with 361,790 more rows
…
