Using reticulate and data.table in a tidyverse-centric Workflow to Compute Non-Negative Matrix Factorization of Soccer Player Position Profiles
…
Cells arent evenly spaced integers, i.e.x cells are defined at 0, 4.138, 8.276, , 80 instead of something like 0, 4, 8, , 80, and y cells are defined at 0, 4.211, 8.421, , 120 instead of something like 0, 4, 8, , 120). Thats simply due to using 30 and 20 instead of 31 and 21 to split up the x and y ranges respectively. I point this out because this SQL-ish approach would have been much easier if these numbers were just integers! We could join on an integer grid instead of non-equi-joining upon a grid of floating point numbers. Unfortunately, joining on floating point numbers as keys leads to inconsistent results, simply due to the nature of floating points. (A potential solution would be to round the floating point numbers before joining and restore them after the join, but thats just kluge-y and inelegant.)

The index idx is important! This will come back into play when we do the NNMF procedure, at which point well flatten out our x-y pairs into a 1-d format.

Ok, on to the actual data joining.

events_dt <- events %>% drop_na() %>% data.table::as.data.table()
grid_xy_yards_dt <- grid_xy_yards %>% data.table::as.data.table()
events_binned <-
  events_dt[grid_xy_yards_dt, on=.(x > x, x <= next_x, y >= y, y < next_y)] %>% 
  as_tibble() %>% 
  select(player_id, idx, x, y)
events_binned

##  # A tibble: 224,038 x 4
##     player_id   idx     x     y
##         <int> <int> <dbl> <dbl>
##   1      5462     1     0     0
##   2      5467     1     0     0
##   3      5488     1     0     0
##   4      3632     1     0     0
##   5      5576     1     0     0
##   6      5595     1     0     0
##   7      5263     1     0     0
##   8      4063     1     0     0
##   9      5231     1     0     0
##  10      5231     1     0     0
##  # ... with 224,028 more rows

The rest of this is just doing the actual tallying. First, we make an intermediate data set grid_players, which is the Cartesian product of all possible cells in the grid and all players in events. Second, we add back missing cells to events_binned using the intermediate data set grid_players.

In the end, we end up with a players data frame with 603 player_ids * 30 x bins * 20 y bins = 361,800 rows.

##  # A tibble: 361,800 x 5
##     player_id     x      y   idx     n
##         <int> <dbl>  <dbl> <int> <int>
##   1      2941     0  0         1     0
##   2      2941     0  4.211     2     0
##   3      2941     0  8.421     3     0
##   4      2941     0 12.63      4     0
##   5      2941     0 16.84      5     0
##   6      2941     0 21.05      6     0
##   7      2941     0 25.26      7     0
##   8      2941     0 29.47      8     0
##   9      2941     0 33.68      9     0
##  10      2941     0 37.89     10     0
##  # ... with 361,790 more rows
…
