…
  group_by(time_floor, word) %>% 
  summarise(n = n()) %>% 
  ungroup() %>%
  group_by(time_floor) %>%
  mutate(time_total = sum(n)) %>%
  ungroup() %>% 
  group_by(word) %>%
  mutate(word_total = sum(n)) %>%
  ungroup() %>%
  filter(word_total >= quantile(word_total, 1 - top_pct_words)) %>% 
  arrange(desc(word_total))
unigram_bytime
```

    ## # A tibble: 1,377 x 5
    ##    time_floor          word          n time_total word_total
    ##    <dttm>              <chr>     <int>      <int>      <int>
    ##  1 2012-01-01 00:00:00 nutrition    63       5683       1677
    ##  2 2013-01-01 00:00:00 nutrition   263      13380       1677
    ##  3 2014-01-01 00:00:00 nutrition   647      18824       1677
    ##  4 2015-01-01 00:00:00 nutrition   388      17202       1677
    ##  5 2016-01-01 00:00:00 nutrition   215      28586       1677
    ##  6 2017-01-01 00:00:00 nutrition   101      31681       1677
    ##  7 2013-01-01 00:00:00 excel         2      13380       1224
    ##  8 2014-01-01 00:00:00 excel       111      18824       1224
    ##  9 2015-01-01 00:00:00 excel        80      17202       1224
    ## 10 2016-01-01 00:00:00 excel       307      28586       1224
    ## # ... with 1,367 more rows
…
unigram_bytime_models_slopes <-
  unigram_bytime_models %>%
  tidyr::unnest(purrr::map(models, broom::tidy)) %>%
  filter(term == "time_floor") %>%
  mutate(adjusted_p_value = p.adjust(p.value))
unigram_bytime_models_slopes
```

    ## # A tibble: 255 x 7
    ##    word   term    estimate std.error statistic    p.value adjusted_p_value
    ##    <chr>  <chr>      <dbl>     <dbl>     <dbl>      <dbl>            <dbl>
    ##  1 nutri~ time_~ -1.033e-8 4.891e-10   -21.12  5.093e- 99       1.294e- 96
    ##  2 excel  time_~  2.060e-8 9.561e-10    21.54  6.326e-103       1.613e-100
    ##  3 ut     time_~ -9.729e-9 6.339e-10   -15.35  3.748e- 53       9.370e- 51
    ##  4 austin time_~ -4.307e-9 7.014e-10    -6.141 8.197e- 10       1.476e-  7
    ##  5 vba    time_~  3.471e-8 1.892e- 9    18.35  3.415e- 75       8.641e- 73
    ##  6 python time_~ -7.032e-8 4.364e- 9   -16.11  2.092e- 58       5.250e- 56
    ##  7 chick~ time_~ -1.010e-8 8.992e-10   -11.24  2.708e- 29       6.634e- 27
    ##  8 sql    time_~  3.082e-8 2.148e- 9    14.35  1.098e- 46       2.735e- 44
    ##  9 nba    time_~  1.522e-8 1.392e- 9    10.93  8.010e- 28       1.947e- 25
    ## 10 oracle time_~  2.175e-8 2.042e- 9    10.65  1.727e- 26       4.129e- 24
    ## # ... with 245 more rows
…
