…
##             term  estimate std.error statistic      p.value
## 1    (Intercept) 29.094312 4.7262724  6.155869 2.040398e-08
## 2  num_links_img  1.008073 0.5275685  1.910790 5.921483e-02
## 3 num_links_post  1.168952 0.0749660 15.593093 2.586469e-27

R Weekly uses a fairly consistent set of “topics” (corresponding to the head variable in the scraped data) across all of their posts.

head_rmv <- "yaml and intro"
data %>%
  distinct(head, name) %>%
  filter(!(head %in% head_rmv)) %>% 
  count(head, sort = TRUE)

## # A tibble: 44 x 2
##    head                   n
##    <chr>              <int>
##  1 r in real world       92
##  2 tutorial              92
##  3 upcoming event        92
##  4 highlight             89
##  5 r project update      89
##  6 r in organization     80
##  7 resource              71
##  8 quotes of week        63
##  9 insight               55
## 10 videos and podcast    55
## # ... with 34 more rows
…
