…
    list(
      title = ~purrr::map_chr(., str_pluck_title),
      date = ~purrr::map_chr(., str_pluck_date),
      viz = ~purrr::map(., str_pluck_viz)
    )
  ) %>% 
  # `date` is NA for old tidy-text-analysis-google post.
  filter(!is.na(date)) %>% 
  mutate(date = date %>% lubridate::ymd()) %>% 
  # viz` is a list item (because there may be more than one per post), so we need to `unnest()` it to return a "tidy" data frame.
  unnest(viz) %>% 
  select(date, viz, title, path_post)
paths_post

## # A tibble: 71 x 4
##    date       viz              title                      path_post             
##    <date>     <chr>            <chr>                      <chr>                 
##  1 2018-05-20 viz_map_bycompl~ An Analysis of Texas High~ /post/analysis-texas-~
##  2 2018-05-20 viz_map_bycompl~ An Analysis of Texas High~ /post/analysis-texas-~
##  3 2018-05-20 viz_n_bycomplvl~ An Analysis of Texas High~ /post/analysis-texas-~
##  4 2018-05-20 viz_n_bycomp-1.~ An Analysis of Texas High~ /post/analysis-texas-~
##  5 2018-05-20 viz_n_bycompcom~ An Analysis of Texas High~ /post/analysis-texas-~
##  6 2018-05-20 viz_n_bycompcom~ An Analysis of Texas High~ /post/analysis-texas-~
##  7 2018-05-20 viz_persons_sta~ An Analysis of Texas High~ /post/analysis-texas-~
##  8 2018-05-20 viz_persons_sta~ An Analysis of Texas High~ /post/analysis-texas-~
##  9 2018-05-20 viz_persons_sta~ An Analysis of Texas High~ /post/analysis-texas-~
## 10 2018-05-20 viz_persons_sta~ An Analysis of Texas High~ /post/analysis-texas-~
## # ... with 61 more rows
…
