…
```
## # A tibble: 71 x 4
##    date       viz            title              path_post          
##    <date>     <chr>          <chr>              <chr>              
##  1 2018-05-20 viz_map_bycom~ An Analysis of Te~ /post/analysis-tex~
##  2 2018-05-20 viz_map_bycom~ An Analysis of Te~ /post/analysis-tex~
##  3 2018-05-20 viz_n_bycompl~ An Analysis of Te~ /post/analysis-tex~
##  4 2018-05-20 viz_n_bycomp-~ An Analysis of Te~ /post/analysis-tex~
##  5 2018-05-20 viz_n_bycompc~ An Analysis of Te~ /post/analysis-tex~
##  6 2018-05-20 viz_n_bycompc~ An Analysis of Te~ /post/analysis-tex~
##  7 2018-05-20 viz_persons_s~ An Analysis of Te~ /post/analysis-tex~
##  8 2018-05-20 viz_persons_s~ An Analysis of Te~ /post/analysis-tex~
##  9 2018-05-20 viz_persons_s~ An Analysis of Te~ /post/analysis-tex~
## 10 2018-05-20 viz_persons_s~ An Analysis of Te~ /post/analysis-tex~
## # ... with 61 more rows
```
…
```
## # A tibble: 71 x 4
##    title            date       path_post          label_md         
##    <chr>            <date>     <chr>              <chr>            
##  1 An Analysis of ~ 2018-05-20 /post/analysis-te~ ![viz_map_bycomp~
##  2 An Analysis of ~ 2018-05-20 /post/analysis-te~ ![viz_map_bycomp~
##  3 An Analysis of ~ 2018-05-20 /post/analysis-te~ ![viz_n_bycomplv~
##  4 An Analysis of ~ 2018-05-20 /post/analysis-te~ ![viz_n_bycomp-1~
##  5 An Analysis of ~ 2018-05-20 /post/analysis-te~ ![viz_n_bycompco~
##  6 An Analysis of ~ 2018-05-20 /post/analysis-te~ ![viz_n_bycompco~
##  7 An Analysis of ~ 2018-05-20 /post/analysis-te~ ![viz_persons_st~
##  8 An Analysis of ~ 2018-05-20 /post/analysis-te~ ![viz_persons_st~
##  9 An Analysis of ~ 2018-05-20 /post/analysis-te~ ![viz_persons_st~
## 10 An Analysis of ~ 2018-05-20 /post/analysis-te~ ![viz_persons_st~
## # ... with 61 more rows
```
…
