…
```{r}
# # A tibble: 196 x 5
#        n     k f     g      metrics         
#    <int> <int> <chr> <chr>  <list>          
#  1     2     2 pca   kmeans <tibble [1 x 4]>
#  2     2     2 pca   gmm    <tibble [1 x 7]>
#  3     2     2 umap  kmeans <tibble [1 x 4]>
#  4     2     2 umap  gmm    <tibble [1 x 7]>
#  5     2     3 pca   kmeans <tibble [1 x 4]>
#  6     2     3 pca   gmm    <tibble [1 x 7]>
#  7     2     3 umap  kmeans <tibble [1 x 4]>
#  8     2     3 umap  gmm    <tibble [1 x 7]>
#  9     2     4 pca   kmeans <tibble [1 x 4]>
# 10     2     4 pca   gmm    <tibble [1 x 7]>
# # ... with 186 more rows
```
…
Looking at average log loss, we see that the GMM clustering methods seem to do better overall (although this may be due to the fact that log loss is not typically used for supervised kmeans). The PCA + GMM does the best across all number of components, with the exception of 7. Note that we get a mean log loss around 28 when we predict the majority class (defender) with a probability of 1 for all observations. (This is a good "baseline".)

UMAP shines relative to PCA according to accuracy, and GMM beats out kmeans in terms of log loss. Despite these conclusions, we still don't really have clear evidence that UMAP + GMM is the best 1-2 punch; nonetheless, we can at least feel good about it's general strength.

### Aside: Re-coding Clusters

I won't bother to show all the code to generate the above plots since it's mostly just `broom::tidy()` and `{ggplot2}`. But, if you ever worked with "semi-supervised" stuff like this (if we can call it that), you'll know that figuring out which of your clusters correspond to your known groups can be difficult. In this case, I started from a variable holding the predicted `.class` and the true class (`pos`).

```{r}
assignments
```

```{r}
# # A tibble: 1,626 x 2
#    .class pos  
#     <int> <chr>
#  1      1 D    
#  2      2 D    
#  3      3 M    
#  4      3 M    
#  5      4 AM   
#  6      2 D    
#  7      2 D    
#  8      4 F    
#  9      2 D    
# 10      1 D    
# # ... with 1,616 more rows
```
…
