…
```{r tracking_start, include=T, echo=T, eval=F}
tracking_start
```

    ## # A tibble: 26 x 9
    ##    frame ball_x ball_y side  player_id     x     y   x_v    y_v
    ##    <int>  <dbl>  <dbl> <chr>     <int> <dbl> <dbl> <dbl>  <dbl>
    ##  1 53027  89.25  36.11 home          1 86.40 57.90 5.625 -5.861
    ##  2 53027  89.25  36.11 home          2 90.57 39.92 1.429 -2.975
    ##  3 53027  89.25  36.11 home          3 91.44 34.29 1.35   3.521
    ##  4 53027  89.25  36.11 home          4 87.99 23.00 0.957  5.107
    ##  5 53027  89.25  36.11 home          5 79.96 36.31 4.036  1.764
    ##  6 53027  89.25  36.11 home          6 78.28 52.40 3.707 -0.911
    ##  7 53027  89.25  36.11 home          7 81.71 25.49 1.621  2.239
    ##  8 53027  89.25  36.11 home          8 72.44 73.77 1.921 -0.725
    ##  9 53027  89.25  36.11 home          9 58.30 37.28 0.821 -1.132
    ## 10 53027  89.25  36.11 home         10 56.85 51.61 0.857 -0.843
    ## # ... with 16 more rows
…
