…
data <-
  tibble(season = seasons) %>% 
  mutate(data = map(season, scrape_epl_data)) %>% 
  unnest(data)
data
```






```
#> # A tibble: 1,140 x 10
#>    season date                tm_h  tm_a    g_h   g_a g_total g_diff result
#>     <dbl> <dttm>              <chr> <chr> <dbl> <dbl>   <dbl>  <dbl> <chr> 
#>  1   2016 2016-08-13 00:00:00 Burn~ Swan~     0     1       1     -1 a     
#>  2   2016 2016-08-13 00:00:00 Crys~ West~     0     1       1     -1 a     
#>  3   2016 2016-08-13 00:00:00 Ever~ Tott~     1     1       2      0 t     
#>  4   2016 2016-08-13 00:00:00 Hull  Leic~     2     1       3      1 h     
#>  5   2016 2016-08-13 00:00:00 Man ~ Sund~     2     1       3      1 h     
#>  6   2016 2016-08-13 00:00:00 Midd~ Stoke     1     1       2      0 t     
#>  7   2016 2016-08-13 00:00:00 Sout~ Watf~     1     1       2      0 t     
#>  8   2016 2016-08-14 00:00:00 Arse~ Live~     3     4       7     -1 a     
#>  9   2016 2016-08-14 00:00:00 Bour~ Man ~     1     3       4     -2 a     
#> 10   2016 2016-08-15 00:00:00 Chel~ West~     2     1       3      1 h     
#> # ... with 1,130 more rows, and 1 more variable: tm_winner <chr>
```
…
